…
animal_rescue %>% 
  group_by(animal_group_parent) %>% 
  
  #group_by and summarise will produce a new column with the count in each animal group
  summarise(count = n()) %>% 
  
  # mutate adds a new column; here we calculate the percentage
  mutate(percent = round(100*count/sum(count),2)) %>% 
  
  # arrange() sorts the data by percent. Since the default sorting is min to max and we would like to see it sorted
  # in descending order (max to min), we use arrange(desc()) 
  arrange(desc(percent))

## # A tibble: 28 x 3
##    animal_group_parent              count percent
##    <chr>                            <int>   <dbl>
##  1 Cat                               3736   48.1 
##  2 Bird                              1611   20.7 
##  3 Dog                               1213   15.6 
##  4 Fox                                366    4.71
##  5 Unknown - Domestic Animal Or Pet   199    2.56
##  6 Horse                              195    2.51
##  7 Deer                               132    1.7 
##  8 Unknown - Wild Animal               93    1.2 
##  9 Squirrel                            66    0.85
## 10 Unknown - Heavy Livestock Animal    50    0.64
## # ... with 18 more rows

animal_rescue %>% 
  
  #count does the same thing as group_by and summarise
  # name = "count" will call the column with the counts "count" ( exciting, I know)
  # and 'sort=TRUE' will sort them from max to min
  count(animal_group_parent, name="count", sort=TRUE) %>% 
  mutate(percent = round(100*count/sum(count),2))

## # A tibble: 28 x 3
##    animal_group_parent              count percent
##    <chr>                            <int>   <dbl>
##  1 Cat                               3736   48.1 
##  2 Bird                              1611   20.7 
##  3 Dog                               1213   15.6 
##  4 Fox                                366    4.71
##  5 Unknown - Domestic Animal Or Pet   199    2.56
##  6 Horse                              195    2.51
##  7 Deer                               132    1.7 
##  8 Unknown - Wild Animal               93    1.2 
##  9 Squirrel                            66    0.85
## 10 Unknown - Heavy Livestock Animal    50    0.64
## # ... with 18 more rows
…
