…
Attached below is the column for GDP percentage change (each country and year). This has been calculated by first finding the GDP manually (sum of household expenditure, government expenditure, gross capital formation, and net exports) and then taking the percentage difference from the GDP provided in the dataframe.

GDPdiff<- wide_GDP_data %>%
  select(GDPDifferencePct, Country, Year)
GDPdiff

## # A tibble: 144 x 3
##    GDPDifferencePct Country  Year
##               <dbl> <chr>   <dbl>
##  1             3.03 Germany  1970
##  2             3.54 Germany  1971
##  3             3.56 Germany  1972
##  4             2.92 Germany  1973
##  5             1.78 Germany  1974
##  6             2.93 Germany  1975
##  7             2.83 Germany  1976
##  8             2.77 Germany  1977
##  9             3.05 Germany  1978
## 10             3.44 Germany  1979
## # ... with 134 more rows
