…
      work_life_balance == 1 ~ "Bad",
      work_life_balance == 2 ~ "Good",
      work_life_balance == 3 ~ "Better",
      work_life_balance == 4 ~ "Best")) %>% 
  select(age, attrition, daily_rate, department,
         distance_from_home, education,
         gender, job_role,environment_satisfaction,
         job_satisfaction, marital_status,
         monthly_income, num_companies_worked, percent_salary_hike,
         performance_rating, total_working_years,
         work_life_balance, years_at_company,
         years_since_last_promotion)
hr_cleaned

## # A tibble: 1,470 x 19
##      age attrition daily_rate department     distance_from_ho~ education  gender
##    <dbl> <chr>          <dbl> <chr>                      <dbl> <chr>      <chr> 
##  1    41 Yes             1102 Sales                          1 College    Female
##  2    49 No               279 Research & De~                 8 Below Col~ Male  
##  3    37 Yes             1373 Research & De~                 2 College    Male  
##  4    33 No              1392 Research & De~                 3 Master     Female
##  5    27 No               591 Research & De~                 2 Below Col~ Male  
##  6    32 No              1005 Research & De~                 2 College    Male  
##  7    59 No              1324 Research & De~                 3 Bachelor   Female
##  8    30 No              1358 Research & De~                24 Below Col~ Male  
##  9    38 No               216 Research & De~                23 Bachelor   Male  
## 10    36 No              1299 Research & De~                27 Bachelor   Male  
## # ... with 1,460 more rows, and 12 more variables: job_role <chr>,
## #   environment_satisfaction <chr>, job_satisfaction <chr>,
## #   marital_status <chr>, monthly_income <dbl>, num_companies_worked <dbl>,
## #   percent_salary_hike <dbl>, performance_rating <chr>,
## #   total_working_years <dbl>, work_life_balance <chr>, years_at_company <dbl>,
## #   years_since_last_promotion <dbl>
…
