…
Can we estimate the population proportion of Snapchat or Instagram users in 2016?

Creating a new variable snap_insta

gss_clean <- gss %>%
  mutate(
    snap_insta=case_when(
      snapchat == 'Yes' | instagrm == 'Yes' ~ 'Yes', #If one uses either SC or Instagram, return 'Yes'
      snapchat == 'NA' & instagrm == 'NA' ~ 'NA', #If there is NA for both, return 'NA'
      T ~ 'No' #Otherwise, return 'No'
      )
  )
gss_clean

## # A tibble: 2,867 x 8
##    emailmin emailhr snapchat instagrm twitter sex    degree         snap_insta
##    <chr>    <chr>   <chr>    <chr>    <chr>   <chr>  <chr>          <chr>     
##  1 0        12      NA       NA       NA      Male   Bachelor       NA        
##  2 30       0       No       No       No      Male   High school    No        
##  3 NA       NA      No       No       No      Male   Bachelor       No        
##  4 10       0       NA       NA       NA      Female High school    NA        
##  5 NA       NA      Yes      Yes      No      Female Graduate       Yes       
##  6 0        2       No       Yes      No      Female Junior college Yes       
##  7 0        40      NA       NA       NA      Male   High school    NA        
##  8 NA       NA      Yes      Yes      No      Female High school    Yes       
##  9 0        0       NA       NA       NA      Male   High school    NA        
## 10 NA       NA      No       No       No      Male   Junior college No        
## # ... with 2,857 more rows
…
Email usage

Can we estimate the population parameter on time spent on email weekly?

New variable ‘email’ combining ‘emailhr’ and ‘emailmin’

gss <- gss %>%
  mutate(
    emailhr=if_else(emailhr == 'NA', 0, as.numeric(emailhr)), #Variable emailhr is 0 if emailhr is 'NA', otherwise input the value in the original column as a number 
    emailmin=if_else(emailmin == 'NA', 0, as.numeric(emailmin)), #Variable emailmin is 0 if emailmin is 'NA', otherwise input the value in the original column as a number 
    email=emailhr*60+emailmin) #New variable email that combines emailhr and emailmin for total number of minutes spent on emails
gss

## # A tibble: 2,867 x 8
##    emailmin emailhr snapchat instagrm twitter sex    degree         email
##       <dbl>   <dbl> <chr>    <chr>    <chr>   <chr>  <fct>          <dbl>
##  1        0      12 NA       NA       NA      Male   Bachelor         720
##  2       30       0 No       No       No      Male   High school       30
##  3        0       0 No       No       No      Male   Bachelor           0
##  4       10       0 NA       NA       NA      Female High school       10
##  5        0       0 Yes      Yes      No      Female Graduate           0
##  6        0       2 No       Yes      No      Female Junior college   120
##  7        0      40 NA       NA       NA      Male   High school     2400
##  8        0       0 Yes      Yes      No      Female High school        0
##  9        0       0 NA       NA       NA      Male   High school        0
## 10        0       0 No       No       No      Male   Junior college     0
## # ... with 2,857 more rows
…
#Tidying World bank data from wbstats
worldbank_data_pretty_much_long <- worldbank_data %>%
  select(-iso2c, -iso3c) %>% #Delete '-iso2c' and '-iso3c'
  rename(year=date) #Rename date as year 

data_join <- hiv_long %>%
  inner_join(life_expectancy_long, by=c('country', 'year')) %>%#joining hiv_long with life_expectancy_long 
  full_join(worldbank_data_pretty_much_long, by=c('country', 'year')) #joining the new data set above with the worldbank_data_pretty_much_long data set 

data_join

## # A tibble: 12,732 x 8
##    country      year   hiv lifeExp NY.GDP.PCAP.KD SE.PRM.NENR SH.DYN.MORT
##    <chr>       <dbl> <dbl>   <dbl>          <dbl>       <dbl>       <dbl>
##  1 Afghanistan  1979    NA    44.4             NA          NA        248.
##  2 Afghanistan  1980    NA    44.1             NA          NA        242.
##  3 Afghanistan  1981    NA    44.9             NA          NA        235.
##  4 Afghanistan  1982    NA    44.6             NA          NA        229.
##  5 Afghanistan  1983    NA    42.8             NA          NA        222.
##  6 Afghanistan  1984    NA    40.5             NA          NA        216.
##  7 Afghanistan  1985    NA    42.4             NA          NA        209.
##  8 Afghanistan  1986    NA    43.4             NA          NA        203.
##  9 Afghanistan  1987    NA    45.5             NA          NA        196.
## 10 Afghanistan  1988    NA    47.9             NA          NA        190.
## # ... with 12,722 more rows, and 1 more variable: SP.DYN.TFRT.IN <dbl>
…
mortality_clean %>%
  slice_max(order_by=change, n=5) #Extracting the top 5 per region

## # A tibble: 32 x 5
## # Groups:   region [7]
##    country     region                startmort endmort change
##    <chr>       <chr>                     <dbl>   <dbl>  <dbl>
##  1 Korea, Rep. East Asia & Pacific       112.      3.4   97.0
##  2 Singapore   East Asia & Pacific        47.7     2.7   94.3
##  3 Japan       East Asia & Pacific        39.7     2.7   93.2
##  4 Thailand    East Asia & Pacific       146.     10.3   93.0
##  5 China       East Asia & Pacific       118.      9.9   91.6
##  6 Portugal    Europe & Central Asia     114.      3.6   96.9
##  7 Turkey      Europe & Central Asia     257.     12.1   95.3
##  8 Italy       Europe & Central Asia      51.9     3.4   93.4
##  9 Cyprus      Europe & Central Asia      38.2     2.6   93.2
## 10 Poland      Europe & Central Asia      65.1     4.7   92.8
## # ... with 22 more rows

mortality_clean %>%
  slice_min(order_by=change, n=5) #Extracting the lowest 5 per region

## # A tibble: 32 x 5
## # Groups:   region [7]
##    country                   region                startmort endmort change
##    <chr>                     <chr>                     <dbl>   <dbl>  <dbl>
##  1 Micronesia, Fed. Sts.     East Asia & Pacific        56.5    32.5   42.5
##  2 Korea, Dem. People's Rep. East Asia & Pacific        35.1    20     43.0
##  3 Palau                     East Asia & Pacific        36.4    19.1   47.5
##  4 Nauru                     East Asia & Pacific        74.1    33.9   54.3
##  5 Tuvalu                    East Asia & Pacific        80.5    26.4   67.2
##  6 Monaco                    Europe & Central Asia       9.7     3.4   64.9
##  7 Turkmenistan              Europe & Central Asia     133.     42.2   68.2
##  8 Slovak Republic           Europe & Central Asia      21.6     6.1   71.8
##  9 Ukraine                   Europe & Central Asia      33.8     9.2   72.8
## 10 Moldova                   Europe & Central Asia      64.1    15.3   76.1
## # ... with 22 more rows
…
